{
  "project_info": {
    "project_number": "112794312175",
    "project_id": "nhanopo",
    "storage_bucket": "nhanopo.appspot.com"
  },
  "client": [
    {
      "client_info": {
        "mobilesdk_app_id": "1:112794312175:android:2181baeefd17846e4eea1a",
        "android_client_info": {
          "package_name": "com.example.testfirebase"
        }
      },
      "oauth_client": [],
      "api_key": [
        {
          "current_key": "AIzaSyAqEwmW2caYy7eWk-R1ShCri-IXmqpa3oc"
        }
      ],
      "services": {
        "appinvite_service": {
          "other_platform_oauth_client": []
        }
      }
    }
  ],
  "configuration_version": "1"
}